﻿17028,1/16/2020 6:44,104,0
17028,1/16/2020 17:33,104,0
88412,1/16/2020 19:04,104,0
17028,1/17/2020 6:33,104,0
17028,1/17/2020 17:42,104,0
17028,1/18/2020 6:38,104,0
88412,1/18/2020 7:02,104,0
17028,1/18/2020 17:45,104,0
19639,1/18/2020 17:45,104,0
88412,1/19/2020 7:14,104,0
19639,1/19/2020 17:32,104,0
17028,1/20/2020 6:18,104,0
19639,1/20/2020 13:13,104,0
17028,1/20/2020 17:18,104,0
88412,1/20/2020 19:00,104,0
17028,1/21/2020 6:35,104,0
88412,1/21/2020 6:55,104,0
17028,1/21/2020 17:57,104,0
13123,1/21/2020 22:50,104,0
88412,1/22/2020 7:21,104,0
88412,1/23/2020 7:04,104,0
19639,1/23/2020 13:13,104,0
17028,1/23/2020 19:05,104,0
19639,1/23/2020 22:34,104,0
17028,1/24/2020 6:51,104,0
17028,1/24/2020 18:08,104,0
88412,1/24/2020 19:10,104,0
17028,1/25/2020 6:42,104,0
19639,1/25/2020 6:42,104,0
17028,1/25/2020 17:53,104,0
19639,1/25/2020 17:56,104,0
17028,1/26/2020 6:21,104,0
19639,1/26/2020 6:21,104,0
88412,1/26/2020 8:31,104,0
17028,1/26/2020 17:36,104,0
19639,1/26/2020 17:38,104,0
88412,1/26/2020 18:38,104,0
88412,1/27/2020 7:09,104,0
19639,1/27/2020 13:11,104,0
17028,1/27/2020 17:22,104,0
17028,1/28/2020 6:45,104,0
19639,1/28/2020 13:15,104,0
17028,1/28/2020 18:05,104,0
88412,1/28/2020 19:05,104,0
19639,1/28/2020 22:14,104,0
19639,1/29/2020 13:20,104,0
13123,1/29/2020 22:44,104,0
19639,1/29/2020 22:44,104,0
88412,1/30/2020 7:25,104,0
19639,1/30/2020 13:21,104,0
17028,1/30/2020 17:33,104,0
88412,1/31/2020 7:15,104,0
17028,1/31/2020 18:07,104,0
19639,2/1/2020 6:13,104,0
17028,2/1/2020 6:33,104,0
17028,2/1/2020 17:23,104,0
88412,2/1/2020 19:12,104,0
13123,2/1/2020 22:20,104,0
17028,2/2/2020 17:42,104,0
19639,2/2/2020 17:46,104,0
13123,2/2/2020 22:21,104,0
17028,2/3/2020 6:38,104,0
88412,2/3/2020 7:12,104,0
17028,2/3/2020 17:32,104,0
88412,2/4/2020 7:36,104,0
17028,2/4/2020 17:15,104,0
17028,2/5/2020 6:39,104,0
17028,2/5/2020 16:43,104,0
88412,2/5/2020 19:00,104,0
17028,2/6/2020 6:41,104,0
19639,2/6/2020 13:12,104,0
17028,2/6/2020 17:17,104,0
17028,2/7/2020 6:19,104,0
88412,2/7/2020 7:20,104,0
19639,2/7/2020 13:12,104,0
17028,2/7/2020 17:42,104,0
17028,2/8/2020 6:31,104,0
88412,2/8/2020 7:09,104,0
17028,2/8/2020 17:26,104,0
19639,2/8/2020 22:23,104,0
88412,2/9/2020 19:07,104,0
17028,2/10/2020 6:38,104,0
19639,2/10/2020 9:04,104,0
17028,2/10/2020 17:31,104,0
19639,2/10/2020 19:37,104,0
13123,2/10/2020 22:17,104,0
19639,2/11/2020 6:22,104,0
17028,2/11/2020 6:31,104,0
88412,2/11/2020 7:01,104,0
17028,2/11/2020 17:20,104,0
19639,2/11/2020 17:36,104,0
19639,2/12/2020 6:21,104,0
88412,2/12/2020 7:15,104,0
17028,2/13/2020 6:45,104,0
17028,2/13/2020 17:47,104,0
19639,2/13/2020 17:56,104,0
88412,2/13/2020 19:40,104,0
17028,2/14/2020 6:27,104,0
17028,2/14/2020 17:41,104,0
19639,2/15/2020 6:12,104,0
